…
    ## date created (size, mb): 2020-10-05 23:57:09 (1.703)

    ## file min/max dates: 1965-01-01 / 2020-03-31

    ## using cached file: C:\Users\WUWENZHAO\AppData\Local\cache/R/noaa_ghcnd/USS0023B17S.dly

    ## date created (size, mb): 2020-09-12 17:10:03 (0.879)

    ## file min/max dates: 1999-09-01 / 2020-09-30

``` r
weather_df
```

    ## # A tibble: 1,095 x 6
    ##    name           id          date        prcp  tmax  tmin
    ##    <chr>          <chr>       <date>     <dbl> <dbl> <dbl>
    ##  1 CentralPark_NY USW00094728 2017-01-01     0   8.9   4.4
    ##  2 CentralPark_NY USW00094728 2017-01-02    53   5     2.8
    ##  3 CentralPark_NY USW00094728 2017-01-03   147   6.1   3.9
    ##  4 CentralPark_NY USW00094728 2017-01-04     0  11.1   1.1
    ##  5 CentralPark_NY USW00094728 2017-01-05     0   1.1  -2.7
    ##  6 CentralPark_NY USW00094728 2017-01-06    13   0.6  -3.8
    ##  7 CentralPark_NY USW00094728 2017-01-07    81  -3.2  -6.6
    ##  8 CentralPark_NY USW00094728 2017-01-08     0  -3.8  -8.8
    ##  9 CentralPark_NY USW00094728 2017-01-09     0  -4.9  -9.9
    ## 10 CentralPark_NY USW00094728 2017-01-10     0   7.8  -6  
    ## # ... with 1,085 more rows
…
    ## Warning: Removed 3 rows containing non-finite values (stat_smooth).

    ## Warning: Removed 3 rows containing missing values (geom_point).

<img src="visualization_files/figure-gfm/unnamed-chunk-8-1.png" width="90%" />

``` r
weather_df %>%
  mutate(
    tmin = 9 * tmin / 5 + 32,
    tmax = 9 * tmax / 5 + 32
  )
```

    ## # A tibble: 1,095 x 6
    ##    name           id          date        prcp  tmax  tmin
    ##    <chr>          <chr>       <date>     <dbl> <dbl> <dbl>
    ##  1 CentralPark_NY USW00094728 2017-01-01     0  48.0  39.9
    ##  2 CentralPark_NY USW00094728 2017-01-02    53  41    37.0
    ##  3 CentralPark_NY USW00094728 2017-01-03   147  43.0  39.0
    ##  4 CentralPark_NY USW00094728 2017-01-04     0  52.0  34.0
    ##  5 CentralPark_NY USW00094728 2017-01-05     0  34.0  27.1
    ##  6 CentralPark_NY USW00094728 2017-01-06    13  33.1  25.2
    ##  7 CentralPark_NY USW00094728 2017-01-07    81  26.2  20.1
    ##  8 CentralPark_NY USW00094728 2017-01-08     0  25.2  16.2
    ##  9 CentralPark_NY USW00094728 2017-01-09     0  23.2  14.2
    ## 10 CentralPark_NY USW00094728 2017-01-10     0  46.0  21.2
    ## # ... with 1,085 more rows
…
